%YAML 1.1
%TAG !u! tag:unity3d.com,2011:
--- !u!114 &11400000
MonoBehaviour:
  m_ObjectHideFlags: 0
  m_CorrespondingSourceObject: {fileID: 0}
  m_PrefabInstance: {fileID: 0}
  m_PrefabAsset: {fileID: 0}
  m_GameObject: {fileID: 0}
  m_Enabled: 1
  m_EditorHideFlags: 0
  m_Script: {fileID: 11500000, guid: 656b54885fa99444ab651a36824cbf99, type: 3}
  m_Name: KingOfHearts
  m_EditorClassIdentifier: 
  Name: King of Hearts
  Description: King of Hearts
  CardImage: {fileID: 21300058, guid: 6c26b790d9c124a82b1ff2d7246233c1, type: 3}
  Rank: 13
  Kind: 1
